ನೋಲಿ doli

for fastening a knife to the
legs of a cock in a cock-
fight.

ಜೋಲಿ doli. 1. sce ಜೋಲಿ.

ಜೋಲು dolu. 1. see ಡೋಲು,

-8 -nu. accusative case suffix.
ramany 100/1 0೩1 Rama,
ave 0110111/ 10116 he called me,
211 inany nadye 1 searched
for you.

-3 -na. a genitive suffix usual-
ly cuphonic and optional
in the case of nouns of
higher gender. 11/0 or ayana
his, magale or magalena of
the daughter, jokle or
joklena children’s.

ನಕ naka. 11. shell of a fish.

ನಕಾರಿ nakari. adj. useless,
worthless.

ನ್ಟ nakky. v also 87, to

SeoyRnbnakkamutti. 11- ೩ sort
of gambling (21.

ನಕ್ಳುರು nakkuru. ೫. also ನಕ್ಳು
an earthworm.

ನಕ್ಷಕ್ರಿತ್ತಾಯ naksatrittaya. #. a

family name of Tuluva
Brahmins. [naksatrata--

aya.]
ನಕ್ಕು) nakju. 11. see SEy0.

ನಗ್‌ nagadu. adj. fibrous;

nappy.
ನಗಾರಿ nagari. 11. a large kettle-

drum [F].
17

129

[lick, to lap. |

ನಟ್ಟ್‌ nattu

e R .

; ನೋಸೆ dose. 1. ೩ cake of flour.

| ದೌಡ್ಮು daudu. 1. arrogance;
expedition.

ದೌಡ್ಯು daudu. ೪. march, gallop.

ದೌಲು daulu. 7. see ಡೌಲು.
೧

ನ

ನಗೆ nage. 11. 8150 ನಗೆಪ್ರು, ನಗೆರ್ಪು
mouldiness, 7011677655,

| ನಗೆಪ್ರು nagepu. 11. 506 ನಗೆ.

ನಗೆಪ್ಪು nagepu. ೨. ೩150 ನಗೆರ್ಪು 10
get 77001017655.

. ನಗೆರ್ಪುಟ nagerpu. 1/- 566 ನಗೆ.
ನಗೆರ್ಪು, nagerpu. v. 566 ನಗೆಪ್ಪು.
ನಗೊ 78೦.11. jewels, ornaments.

| ನಗ್ಗ್‌ naggu. adj. stunted, not

fully developed.

( ನಂಕ್‌ nanku. /7011- for us, to us.

| ನಂಗ್‌ nangu. 11. a kind of fish.

| ನಚ್ಚ್‌ naccy. 11. strain, tedious-
ness. —la bele work involv-
ing a tedious process.

| ನಚ್ಚ nacca. 11. pricking.

| 3%,3 naccatra. 11. star. [Sk.

|33
| ನಂಜ್‌ nafiju. #. poison; jealousy.
ನಂಜಪ್ಪ nafijappa. 11. name of a
male person. (mafija+{-appa.]

| ನಟಿ nata. 00). intensive, much.
— 101111! intensive heat due
to sun.

ನಟಿ ನಟಿ nata nata. 001. briskly,
nimbly; indicating ೩ crackl-

ing noise.

| ನಟ್ಟ್‌ nattu. ೪. 10 beg. 110[1(-

| nayé, 116/1818 beggar.

(
