ಮೆಗಿ megi

208

ಮೆತ್ವೆ merve

ಮೆಗಿ megi. 7. also 3o, ಮೆಗೈ ೩
younger brother.

ಮೆಗ್ಗೆ megge. 1. 566 ಮೆಗಿ,

ಮೆಗ್ಹಿ megdi. #. ೩ younger 515108.

ಮೆಗೈ megyé. n. 566 ಮೆಗಿ.

ನೆಚ್ಚ್‌ meccy. ೨. to ೩008೦7೮೫1೦
like, 10 be pleased.

ಮೆಚ್ಚಮನೆ meccamane. 1. ೩

privy [M].

ಮೆಚ್ಚಿ, mecci. 7. ೩ sacrifice to a

demon [M].

ಮೆಚ್ಚೈ mecci. #. the name of
a festival at Anantadi
in favour of the goddess,
Durga.

ಮೆಚ್ಚಿಗೆ meccige. ೫- approval.

ಮೆಜಿಲ್‌' mejily. v. see ಮಿಜಿಲ.

ಮೆಂಚೆ mefici. 11. see ಮಿಂಚ್ಕ್‌.

ಮೆಣಕಟೆ menakate. 00). gummy,
adhesive. [ಆ.1750೩.]

ಮೆಣ್ಳ್‌ menkuy. ೪. 566 Ny

ಮೆಣ್ಕೊಳಿ menkoli. 11. ೩150 ಮೆನ್ಕೋರಿ
a glow-worm.

ಮೆಣ್ಣ್‌ menny. 1. 566 ಮಿಣ್ಣ್‌.

ಮೆಣ್ಣ ಇ mennate. 7. 176 napkin
used for covering the breast
of a Pariah woman [M].

ಮೆಣ್ತುರಿ menpuri. 1. see ಮಿಣ್ಣುರಿ.

S8, 716))8.- 7. the 1078 fisher.

35088 menti. 7. spoiled. pro.
kondatanta bage menti anu
fondling has spoiled.

ಮೆತ್ತ್‌ mettu. ೪. 10 plaster with
mud.

ಮೆತ್ತನ mettana. adj. also ಮೆತ್ತನೆ,
ಮೆತ್ತೆನ soft, pliant.

ಮೆತ್ತನೆ mettane.
ಮೆತ್ತನ.

ಮೆತ್ತಿಗೆ mettige. ೫. the pave-

adj. see

i ಮೆತ್ತೆ mette. 11.

ment or boards of the floor
of an upper story; ceiling
of a house.

also ಮೆಂತೆ fenu-

greek.
33,3 mettena. adj. 566 ಮೆತ್ತನ.

| ಮೆತ್ತೆಸಲೆ mettesale. 11. a kind of

fine rice.

ಮೆದಿ medi.
field.

2>z medky. ೫. to move.

ಮೆದ್ದು medpu. ೪. to pound ೩5
7106.

ಮೆದ್ಲೆ medle. #. ೩ pin-worm, ೩
thread-worm.

ಮೆನಿಪು menipu. . to awake, to
370056,

ಮೆನ್ಯೋರಿ menkari. 1. 5೦೦ ಮೆಣ್ಣೊಳಿ,

ಮೆಂತೆ mente. 7. 566 ಮೆತ್ತೆ,

ಮೆಯರೈ, 7707876. 7. ೩150 ಮೇಕೆ
boundary.

#3023, meyare. 92. ೩ section of
the Harijans.

ಮೆಯಿ meyi. 7. body. ——iriyuni
to become thin, —kaity
form, shape, —kayuni to
suffer from fever, —kavaly
bodyguard, --ಸಿ704 10 be-
come robust, —nzru urine,
1110)71 bary to be possessed
by ೩ spirit, —bary to suffer
from 169೮7, meydu popim
to suffer from Leucorrhea
as in the case of females.

ಮೆರೆ mere. ೪. to display one’s
importance derived from
wealth, position, etc.

2338y 176700, #. glitter, lustre.

ಮೆರ್ವೆ 7767776, #. an ornamented

೫. a bush about a
