.

ಮೋಂಟು montu 212 ﬁé?ﬁuu?aufyekk\;'balyﬁm.
ಮೋಂಟು moptu. 11. name of ೩ | ಮೋಪು mopu. 11. see ಮೂಪು. X

female person. |
ಮೋಂಟೊಲು 7751101೬. #. ೩ kind |

of 1೯6.
ಮೋಶೆ mote. #. the plantain |
* flower-bud.
ಮೋನಪ್ಪ 1757800೩. 11. name ೦8

೩ male person. [monu--
appa.]
ಮೋನಿ moni. 7. daughter [M].

ಮೋನ್ಮು monu. 11. son [M].

Sptdy, monu. ೫೩ name of ೩
male person.

ಮೋನೆ 73506. ೫. also ಮೋರೆ 1೩06,
countenance. 10110611-- ೩
small 1೩06, 07/1-- ೩ narrow
18806, muinguli— a large

`` face, bapelu— plump face,

an angry face, sudy— a
stern face.
ಮೋಂದಲೆ mondale. 1. shaving

the face, particularly of a
bride groom [M].

ಮೋಂಬತ್ತಿ mombatti. #7-
candle.

ಮೋರ mora, ೫. beginning,
commencement [M].

ಮೋರಿ mori. ೫. fodder for
cattle. .

ಮೋರಿ mori. 7. a channel, drain
across a street.

ಮೋರೆ more. #- 566 ನೋನೆ.

ಮೋಲ 77251೩. #. ೩150 ಮೋಳ coupl-
ing ೦೫ mating ೩5 of serpents.

ಮೋಲಿ moli. 2. ೩ kind of pepper
water.

ಮೋಸೊ moso. 11. deceit, fraud,
trick.

ಮೋಳ moja. 1. see ಮೋಲ.

ಮೋಳು 17510. 101. 566 ಇಮ್ಬಳ್‌.

ಮೌಪು maupu. ೪. 566 ಮಗ್‌ರ್ಬು.

ವಮೌರು mauru. ೪. 10 masticate,
chew.

a wax

ಯ

ಯ್ಯ ya. ೩ letter of the alphabet.

ಯ್ಯ -]7೩, particle indicating
past tense of ೩ verb. ಶಿ
korye 1 gave, mamo koryo
we gave etc.

ಯಕ್ಚುಂದಿಲ್‌ yakkandely. 1. also
ಯೆಕ್ಳಂದೆಲ್‌' being beyond
reach; that which cannot
be reached; want, insuffici-
ency. [<ekku 10 reach.]

ಯಚ್ಮು yacmu. ೫, name of a
" female’ person. [Sk. laksmi.]

ಮ್ಚಗ್ಳು mbaglu. pron. see ಇಂ
ಬಕ್ಳು.
ಯಡತ್ತ್‌ yadatty. 600. ೩೦೮ ಎ

=
ಯಡೆಂಬು yadambu. 1.
5166.
ಯಾನ" yanu. 070%. 5೮೦ ಏನ್‌.
ಯಾರು yaru. ೪. see ಇತಾರು.
ಯಾವು yavu. ೪. 5೮೮ ಇತಾರು.
% yi. pron. 5೦6 ಈ.
daﬂaoﬂuf yekkandely. #. see
ಯಕೃಂಜಿಲ್‌.
o387, ಬಲ್ಯಾರ್‌ yekky balyaru ೫
೩ kind ೦8 [ಬೆ

left

34
