ಸುಯಿ suyl

e ನ
ಸುಯಿ suyi. 7. 566 ತುಯಿ,

ಸುಯಿಂಪು suyimpu. ೫7566 ತುಯಿಂಪು,
ಸುಯಿಲ್‌. 5077030. ೫. breath,
respiration (cf. ಉಸುಲ?), - /2-

duni 10 whistle.

ಸುರಾಯಿ ಮಾನ್‌ surayi ming. 1೩

Bonito fish (¢f. kallede).

ಸುರಿ suri. ೪. to string, to bore;

to dribble.

ಸುರುಂಟು suruntu. ೪. contract,

to shrivel (cf. ಶಿರಿಂಟ್‌),

ಸುರುಳಿ suruli. 7. ೩ coil, roll of

anything.
ಸುರೆ sure. 11. 566 ತುರೆ.

ಸುರು ೨ಾಂಡಾಯಿ surlu kandayi. 1.

a kind of fish [M].

ಸುಲಯಿ sulayi. ೫. ೩ rudder.
ಸುಲಾವು sulavu. ೪. to row ೩ boat.

ಸುಲ್ಮಿ 5011. ೪. see ತೊಲಿ.

20, suli. 1. 566 ತುಲಿ.

ಸುಲಿಗೆ sulige. ೫%
plunder.

ಸುಳಿ suli. 11. 566 ಚುಳ್ಳಿ.

ಸುಳು 501೬. ೫. 61106, hint.

ಸುಳ್ಳು 50110. ೫. ೩16, falsehood.

ಸುಳ್ಳಿ 50111. 1. see ಚುಳ್ಳಿ-

ಸೂ 51. ೫. 566 ತೂ.

ಸೂಟಿಣ್‌ satany. 11. 566 ತೂಟಿಣ್‌,
ಸೂಟಿ 51(6, 1. 566 ಚೂಟಿ.

ಸೂಡಿ 5161, 11. 566 ಜೊಡಿ.
ಸೊಂಬು 58: 7. 566 ತೂಂಬು.
ಸೂಯಿ styi. 1. feather.

R0, suri. 1. ೮೫6 line (the

border of the roof).

ಸೂರ್ಮಿ suri, 7. ladle-like 50007
used in serving cocoantt

oil, ghee etc.

ಸೊರೆ 5೫76, 1. plundering, ೫೫”

sacking. - 1]

೩180 ಸೊಲಿಗೆ

223
B

ಸೆಕ್ಕಿ sere
ಸೂರೋಳು s
511511, 4. 1
= U 1 2 rattan, 5
2
'\\B:Fé sﬁrx.xa. ೫. also ಸೂರ್ಣತ
ಎರಡೆ ೩ 1016 01 bulbous root,
ಸೂರ್ಣ, 58೯71೩, 1, something
in the form of ೩ paste or
powder. [Sk. ciirpa.]

ಸೂರ್ಣತ ಕಂಠಿ ST
irpata ka
566 ಸೂರ್ಣ,. ಸ

ಸೂಲ 58, 9. 866 ಶೂಲ,

ಸೂಲಿ 511, 1. 606 ಚೂರಿ,

ಸೂಲು 511, 4. swearing [M).

ಸೊರೆಂಗಿ stlengi. 1. an instru-
ment for peeling the fibrous
covering of a cocoanut.

ಸೂಳೆ 5116, n. whore, harlot.
—bottu ೩ kind of shrub,

ಸೆಕೆ seke. 1/. see ಸಿಕೆ.

ಸೆಟ್ಟಿ setti. 1/- see ಶೆಟ್ಟಿ, ~

ಸೆಡಗರ sedagara. ೫. egotism,
vanity (cf. ಸೆಡವು.

A=) sedavu. . egotism, vanity
(6. Adid).

| A, sedi. 9. 566 2a,, 30,

ಸೆಡ್ಮಿ 560, #. a strong tinge
usually of bad smell.

ಸೆಡಿಲ್‌ sedily. 1. see ತೆಂಲ್‌. ಕ

28 9666. 1/. 51660178, rubbish.

ಸೆಮಿಲ್‌ 561311, 1- 566 ತೆನಿಲ್‌.

ಸೆರಗ 5739. 11: ೫50. Adon® an
end or edge of a female’s

garb.
ಸೆರೆಂಗ್‌ serangy. 7 506 ಸೆರಗ್‌...
ಸೆರಸ್ರೆ seraste. 1 & curtain,
