ಉಗ್ಗು, uggu

24

-ಉಣು -unu

ಉಗ್ಗು uggu. ೪. stammer.

o, uggu. ೪. 10 spurt out. |
nettary ugguni 186 blood |
spurting out.

oo} o uggely. 7. also ಶುನೆಲ್‌, '
ಗುವೆಲ್‌ a well.

ಉಗ್ರಾಣೊ ugrino. 11. store-room.

ಉಗ್ರಾಣಿ ugrini. 1. peon of the
village officer; store-keeper.

ಉಂಗಿಲೊ ungilo. 11. ೩ ring.

ಉಂಗುಟೊ unguto. 11. ೩೬೦ ಉಂ
ಗುಟ್ಟೊ the great toe [Sk. |
ungustha.]

ಉಂಗುಟ್ಟೊ ungutto. ೫1.
ಗುಟೂ.

ಉಂಗುರುಪುಳಿತಾಯ/ಗಟ7೬001115]/೩,
11. ೩ family name ೦1 Tuluva
Brahmins. [ungurupulita+

< aya.]

0D, U7, uccaly. #, ೩ hammer
0.

ಉಚ್ಚಾಲ್ಡ್‌ uccaly. 1... 8150 ಉಜ್ಜಾ
o, ಉಯ್ಯಾಲ್‌ ೩ swing.

ಉಚ್ಚಿ ucci. #. ೩೬೦ ಉಚ್ಚು ೩
57816, ೩ worm.

ಉಚ್ಚ uccu. 1. 506 ಉಚ್ಚಿ.

ಉಚ್ಚೆ ವಿನಾನ್‌, ucceminy 7. spotted
butter fish. [ucce4+minu.]

w3, ujide. 9. also ಜಿಡ್ಡೆ ೩ small
mortar. |

ಉಜಿಡ್ಕೆ njide. 1. deserted per- |
son. |

ಉಜಿಡ್ಕೆ ujide. adj. not heavy.

ಉಜುಂಬು ujumbu. ೪. also ಜಿಂಬ್ಕು
ಜುಂಬು 10 suck.

ಉಜ್ಜಾಲ್‌ ujjaly. 11. 566 ಉಚ್ಛ್ರಾಲ್ಕ್‌-

ಉಜ್ಜೆರ್‌ ujjery. 11. ೩20 ಉಜ್ವೆರ್‌ |
a 26516,

ಉಜ್ಜೆರ್‌ ujvery. ೫. 566 ಉಜ್ಜಿರ್‌.

566 ಉಂ
|

Qo %) ufifiakka. 11. name of a
female person.

ಉಟಾರಣೆ utarane. 1. also ಹುಟಾ
ರಣೆ fabricatior.

ಉಡುದಾರೊ ududaro. 11. ೩ gold or
silver girdle. [udu+-daro.]

ಉಡಲ" udalu. 2. stomach,
body. prv. udalyty puttodu
buddi, bennity puttodu orako
intelligence must come from
within one’s body, water
must spring forth from the
land.

ಉಡಾಸಿ udapi. 7. also ಉಡಾಸ್ಯೊ
indifference, overbearing-
ness.

ಉಡಾಪ್ಯೊ udapyo. 1. see ಉಡಾಸಿ,

ಉಡಾಯಿಸ್‌ uddyisu. ೪. deny,
contradict.

ಉಡಿಗೆರೆ udigere. 1. ೩ gift.

ಉಡ್ಕು udu. 11. ೩೫ iguana.

-ಉಡ್ಕು -udu. ಐ, used ೩5 ೩ suffix
for forming causative verbs.
nadapudu cause to walk.

ಉಡುಕು uduku. 1೩. ೩ kind of
thin long drum.

ಉಡುಪ udupa. 11. ೩ family name
of Tuluva Brahmins.

ಉಡೆ ude. v. also wB, ಒಡ್ಕೆ 10
break; to ache ೩5 it were
splitting. 1070 udepune head-
ache.

ಉಣ್‌ uny. ೪. 10 eat.

ಉಣ್‌ಜ್ಲು unungu. ೪. ೩150 ನುಂಗು
10 dry.

ಉಣಸ್‌ 1112850. 11. ೩150 ಒಣಸ್‌ a
171681; the dinner.

-ಉಣು -unu. ೪. 566 ಉಂಡ್ಕು, petia
027/8118 the cow ೦೦೫765,
