ಇ fia

104

¢ Beds 10%

೧

ಇ fia. a letter of the alphabet. |
ಇಕ್ಕು flakku. 00). also ಇ್ಲೆಂಗ್‌ 10 |

ಇಕೋಳಿ 7511. 11. anything sticky,
slimy.

get crushed or bruised so | ಇಕೋಳಿಸರ figlisara. 1. ೩ kind of

as 10 1086 shape.
ಇಕ್ಟಟ್‌ flakkatu. adj. lean, thin.
ಇಂಗ್‌ flangu. adj. 566 ಇಸ್ಟ್‌.
ಇರ್‌ಇರ್‌ farufiary. 11. 500006

hedge plant, full 08 sticky
juice in its thick and soft
long leaves, useful as a
medicine.

produced while branches of | ಇಗೋಳೆ fiole. 7. 5811೪೩, especi-

trees or trees give way.

ally of animals (cf. ಜೋಳೆ),

&

&7, tu. also &%, ಡ್‌ locative |

case suffix. petyaty in the
box, maraty in the tree,
Fkaity in the hand.

-&, tu. instrumental case
suffix. ಸಿಂಗೆ kadié he cut
with ೩ sickle.

8, (ಇ. a letter of the alphabet.

8, also -3 ೩ sign of the
communicative or associa-
tive case. @ pu ennata undu
that flower is with me.

ಟಿಕಾಯಿಸು takayisu.. to deceive.
ಟಕಾರಿ takari. adj. spurious.
e, takku. 1. deceit, cheat.
8¢, takké. ೫. ೩ cheat, an |
impostor. |
ಟಂಕಸಾಲೆ tankasile. 7. mint.

8on®on* tang-tang. adj.twang,
as of a metal. !
ಟಾಲ್‌" tapaly. 7. post. ,

B3 tamuyki. 1, ೩ tom-tom,

83 tase. 1. stamp paper.

ಟಾಂಕಿ tanki. 1. ೩ trough.

ಬಾಣೆ tane. 11. ೩ station.

ಟಾಪು. tapu. ೫. transportation
for life.

ಟಾವು tavu. 11. ೩ place.

ಓಟ್‌ tik-tik. 7. sound pro-
duced during the oscillation
of a pendulum of a clock,
etc.

Uzoed tikani. 91. means of sub-
sistence.

83, tikki. #. an ear ornament
set in one or more stones.

ಟಿಕ್‌ tiriky. ೫. also ಓಂಗ್‌ sound
of musical stringed instru-
ments; tinkling.

ಬಿಂಗ್‌ (ಗ, ೫, 566 ಓಂಕ್‌.

89 (1111, .. ೩ 501667, liver.

ಬೀಕು (11:01), 1768717; glossary.

