©2 0" ೩0೧111

ಅತ್ತರ್‌, attary

ಅಡ್ಬಿಲ್‌ adpilu. 1. ೩ 11006. |
'ಾನಡ113 il .

ಅಡ್ಯಂತಾಯ adyantaya. 1. ೩ fa-
m11y name among Bunts.

ಅಡ್ಯರ adyara. 1. an earthen
jar ೦೯ vessel.

ಅಡೈ adye. 11. ೩ cake; pudding.

ಅಡ್ಯೋಣ್‌ adyonu. ೪. to leave
with entirety [M].

-ಅಡ್ಡು adlu. see -¥R2%. maga-
611 sons.

ಅಣಪ್ರು anapu 11. need, want; |
urgency.

ಅಣಪ್ಪು anapu. 11. harm.

ಅಣರ್‌ anary. 11. moss, mouldi-
ness.

ಅಣಸ್‌ anasy. 7. ೩ handle.

ಅಣಾನ್ರು anavu. ೪. also ಅಣ್ಣಾವು to
look up, to raise or 1 up |
the face, to peep. ]

ಅಣಿ ani. 11. ೩ kind of ornamen- i e
tal equlpment made of
cocoanut feathers worn by
devil-dancers.

ಅಣಿತ anita. adj. elastic.

ಅಣಿಲ್‌ anily. 11. also ಚಣಿಲ್‌ a
‘squirrel. -

ಅಣಿಲೆ anile. 11. the ink-nut tree.

ಅಣುಬೆ anube. adj. soft.

ಅಣೆ ane. 11. also ಹೆಣೆ forehead.

ಅಣೆ ane. 11. steepness.

ಅಣೆಕಲ್‌' ೩1261810. #. ೩ certain
50076 in ೩ temple yard
dedicated to the tutelar
6617-08 the temple. [ane+
kallu]

ಅಣೆಪು anepu. ೪. to strike agai-
‘nst, press. : B
ಅಣೆಬರಾವು anebaravu. 1. ‘also ಹೆಣೆ

ಬಾರೊ 6650077 (writing on the
forehead). [ane+baravu.]
ಅಣ್ಮಿಲ್‌ 8710112. #. ೩ very - 7೩
70% gateway, ೩ wicket.
ಅಂಟ್‌ 0781. ೪. 10 500%, 10 ad-
11076; 10 be urgent; ೫. gum,
paste.
ಅಂಡ್‌ andu. n. the buttock.
ಅಂಡೆಸ್‌ andasu. 7. ೩ kind of
fish.
o8, andi. 9. ೩ short fellow ೦೯
creature; -stunted growth.
ಅಂಡ್ಮಿ andi.n. kernel of mangoes.
ಅಂಡಿಪುನಾರ್‌ andipuniry. #. ೩
kind of tree with rich foli-
age. [andi+puniry.]
ಅಂಡೆ ande. 1. ೩ tube-like struc-
ture, usually made of bam-
boo. -
ಅಣ್ಣ ಪ್ರು ), annappu. 1. name of a
male person. [anna-appu.]
ಅಣ್ಣಾ ವು annavu. v. see ಅಣಾನ್ರು.
! ಅಣ್ಣಿ anni. 11. name of ೩ person.
ಅಣ್ಣು 8170. 11. name of a per-
son. [an elderly person.
anné. 2. an elder brother;
ಅತಿಕಾರೆ atikare. 7. ೩ kind of
paddy seed.
ಅತ್ತ attu. 000. 70,
negative of quality.
ಅತ್ತ್‌ಡ attuda. adv, if not.
ಅತ್ತಂದಿ attandi. adj. also ಅತ್ತಂ
ದಿನ not right, improper.
©3 008 attandina. 001.
ಅತ್ತಂದಿ.
ಅತ್ತಂದೆ attande. 001). besides,
'ಂರಭ। without.
ಅತ್ತರ್‌ attary. #. a kind of 4
screen made of split bamboo,

not 50,

see
