ನಾಗೊಂದಿಗೆ nagondige

nayiké,). [ವಂದಿಗೆ.

ನಾಗೊಂದಿಗೆ nagondige. 11. 566 ನಾಗ.

ನಾಗೊಲೆ nagole. 11. concluding
ceremony of ೩ marriage
among Brahmins.

ನಾಚಿಕೆ nacike. 7. also ನಾಚಿಗೆ
modesty, shame.

ನಾಚಿಗೆ nAcige. 11. see ನಾಚಿಕೆ.

ನಾಚಿಗೆ ದೈ. 780156 0೩1, ೫. 116
sensitive plant, the plant
called Touch Me Not.

&% nafia. 11- name of a male
person. [Sk. nardyana.]

ನಾಟ್‌ natn. ೪. to affect, to
impress, to act upon as a
medicine, to pierce as an
ATTOW.

ನಾಟಿ nata. 11. ೩ pole used for a
hedge or a support.

ನಾಟಿ 111, planting, fixing.

ನಾಟ್ಯೊ natyo. 11- dancing, act-
ing.

ನಾಡ್‌ nadu. 11. a tract, a village.

&, nady. ೫. 10 find out,
search.

ನಾಡಿ nadi. 11. pulse.

ನಾಡೆ nade. . cord, rope.

&%, 75120. 11. nakedness,
nudity [M].

&%, nanu. ಐ. to get moist, to
loose crispness. [ <nany ?]
ನಾಣ nana. adv. sce ನಣ. |

ನಾಣಲಾ napald. 0/17. ೩೧೮ ನನಲ,
ನಾಣಿಲ್‌ 1181110. 11. ೨0 ೮೮1೮೬ 01
olive.
ನಾಣು nanu. 11. name of ೩ male
person. [Sk. nardyana.]
ನಾಣೆಲ್ತ್ವಾಯ/256115]7೩. #.a family
'

11.

133
“called by Pariahs [M] (0/. |

|
|

ನಾಯೆರ್‌ nayeruy

name of luluva Brahmins.
[nanelta+-aya.]

ನಾಣ್ಯೊ nanyo. 11. ೩ coin.

ನಾಂಡೆ nande. #. ೩ 77685076 01
grain equal 10 1/zoth 01 a
566.

ನಾತೊ nato. 1. bad smell.

ನಾಡ್‌ nady’ v. ೩150 ನಾರ್‌ 10 emit
1001 smell.

ನಾಪಾಸ್‌ napasy. 10). also ನಾಸೆ
worthless; stingy; un-
successful.

ನಾಪೆ nipe. adj. see ನಾಪಾಸ್‌.

ನಾಯಿ nayi. 11. ೩ dog.

ನಾಯಿಕ್ಕೆ nayiké. 11. ೩ guide,
16೩6೮೯.

ನಾಯಿಕ್ಕೆ nayiké. 1. ೩ 56೦೦೫ of
Roman Catholics who 50681:
Konkani.

ನಾಯಿಕ್ಕೆ nayiké. #. ೩ caste name
among Konkanis; a caste
name among Nadavas
(Bunts). [see ತುಣಂಗ್‌.

ನಾಯಿತುಣಂಗ್‌ nayitupangu. ೫1.

ನಾಯಿತೊಳಸಿ nayitolasi. #. ೩ kind
of Basil, growing wildly
during rainy season.

ನಾಯಿಪರೆಂಗಿ ndyiparengi. #. ೩
kind of syphilis.

ನಾಯಿಪಲ್ಲೆ nayipalle. ೫. ೩ kind
of tree [11].

ನಾಯಿಸಿಲಿ nayipili. #. hyena.

ನಾಯಿಮಾರೆ nayimaré. #. ೩ Nair
of Kerala ; a Malayalee.

ನಾಯಿಸೊಣಂಗ್‌ nayisonangy #.
see ಶುಣಂಗ್‌,

ನಾಯೆರ್‌ nayery. ೫. plough. —ta
putkayi handle of the
plough.
