ಜಂಗ janga

100

1" ಜಲ್ಲಿ jalli

ot janga. 11. loft ೦7೮೯೩ fire-
place.

ಜಂಗಮೆ jangamé. 12. ೩ Lingayat.

ಜಂಗಾಲ್‌ 187೫10. #. ೩ wooden
platform placed 0% boats
used at ferries for transport-
ing vehicles and other heavy
things.

ಜಂಜರೆ jafijara. adj. also ಜಂಜ್ರಾ
serial [೫].

ಜಂಜಾಲಿ 1೩5151,
fawning.

ಜಂಜ್ರಾ jafijra. adj. see wowd.

ಜಟ್‌ಪಟ್‌ jatypaty. adj. smartly,
promptly, speedily.

ಜಟಾಪಟಿ jatapati. #. strife,
quarrel.

ಜಟ್ಟ jatti. 1. also ದಟ್ಟಿ ೩ waist-
band.

< ಜಟ್ಟಿ jatti. 11. ೩ wrestler.

ಜಡಿ jadi. ೪. to stuff in.

ಜಡೆ jade. 9. ೩150 ಜೆಡೆ, matted
hair; 1006 of ೩ serpent;

n. flattering,

plait.

ಜಡೊ jado. 1. fatigue, weari-
ness.

ಜಡ್ಜ್‌ jaddu. 1. silt settled at
the bottom.

ಜತೆ jate. #. ೩ pair, ೩ couple,
a companion.

%38 jattanné. 1. proper noun
of person.

ಜದ್ರೊ jadro. 11. poverty. [Sk.
daridra.]

'ಜಫಿಯಾರೊ janiyaro. 11. sacred
thread. [Sk. yajfiadara.]
ಜನೊ jano. ೫. ೩ person; people.
ಜಂತ janta.#. ivory. [Sk.danta.]

ಜಂತಿ janti. ೫. ೩ rafter.

| ಜರ್ನಿ jari.

ಜನ್ಮ janna. #. name of ೩ male
person. [Sk. Janardana.]

ಜಪ್ಪು, jappu. ೪. also 8B, 10
descend.

=3, jappu. ೪. 10 open.

ಜಬ್ಬಿ jabbi. 7. ೩150 ಜಬ್ಬು an old
woman.

ಜಬ್ಬು jabbu. 11. 566 ಜಬ್ಬಿ.

=%, jabbé. 1. an old man.

ಜನೆ jame. 1). collection; credit-
side [A].

ಜಂಬು jambu. adj. ೩ peculiar
smell or taste almost.caus-
ing a vomitting sensation.

ಜಂಬುನೇರಳೊ 1817077210. 11.
7056-2071.

'ಜಂಬುಮೂರಿ jambumiiri.
offensive 511611,

ಜಂಬುಲಿ jambuli. 1. ೩ kind 01
basket made of 6410 leaves.

ಜಂಬೊ jambo. . also ದಂಬೊ
pride, arrogance. [Sk.
dambha.]

ಜಂಬ್ರ jambra. 1. an affairs,
10115111655 ; ceremony. i

ಜಮ್ಮ್ರಾನ jamkhana. 11. carpet.

ಜರ್ಮಿ jari. 9. precipice, slope.

n. gold or silver
thread or lace. -

ಜರ್ಕಿ jari. ೪. 10 slip down, to
give way. '

ಜಲಕ್‌ jalaku. ೪. glitter, gleam.

9 jalla. 91. also =¥, a boat-
man’s pole.

ಜಲ್ಲಿ jalli.n.a chaplet 01 flowers;
anythmg dangling or- hang-
ing loosely.

ಜಲ್ಲಿ jalli. #. broken stones;
road metal.

೫. ೩೧0

