ಕಾಜ punarypuli

round in shape and red in | ಪುರುಂಗೆಲೆ. ಜುಗ! ೫.
[punary+puli] |

colour.
ಪುನಾರ್‌ಪುಳಿ punarypuli. 11.
ಪುನಂ್‌ಪುಳಿ.
ಪುಯಿಂತೆಲ್‌ puyintely. 1. ೩150

506

158

B0 pula

aslckly
person, a reluctant worker,
೩ stitigy man.

! ಪುರುಂಚು puruficu. ೪. also ಪುಳುಂಚು

to squeeze.

ಪೊಂರ್ಬಿಲ್‌' the tenth” Tulu ; ಪುರುಂಡೆ purunde. 1. a thorny

month. i
ಪುರ್‌ಂಗಟ್‌ puryngaty.s.also ಪುಳುಂ |

ಗಟ್‌ fermentation, decompo- |
sition. ಪು
ಪುರಕೆ purake. 1%. ೩ bad smell

M.
ಪುರಶ್ತ್‌ puratty. 7. ೩ dowry [M]. |
ಪ್ರರಲ್‌ puraly. #. also ಪುರಾಳ್ಮ್‌,
ಪುಳಲ್ಕ್‌ ಪೊರಲ್‌ ೩ fife, ೩ flute.
ಪುರಾಳ purdly. 2. 5೮೮ DTS
ಪುರಾಳ್ಕ್‌ puraju. #. ೩ bad smell |
as of a boil. |
ಪುರ್ಕಿ puri. 1. 8150 ಪುಳಿ a worm,
moth. —mezpune 10 be |

bush.

ಪುರುಬು. purubu. ೫. also ಪರ್ಬು
eyebrow.
ರುಲಿ puruli. #. ೩ kind 01
bird.

ಪುರುಸೇರ್‌ purusery. 7. a village

festivity celebrated during
the spring (April) wherein
the people take different
mythological roles and go
in a group from house to
house for fifteen nights,
rounded off by worship and
dinner in the last night.

| B8 pure. #. ೩ roof, ೩ ceiling.
| ಪುಕೆಲ್‌ purely. v. also ಪೊರೆಲ್‌ to

affected with skin parasite.
9, puri. #. twining, twisting ;

coir, yarn. | roll, to turn.
ಪುರಿಗಂಟ್ಮ್‌ purigantu. adj. worm- | ಪುರೈಸ್‌ puraisy. ೪. also ಪೂಕೈಸ್‌
eaten. to complete, 10 fulfil, to be
ಪುರಿಗಂಟ್ಮ್‌ purigantu. #.also | able.
_ ಪುರಿಗ್ಲಂಟ್‌, ಪುಳಿಗಂಟ್‌ jealousy. | ಪುರ್ಕಾವು purkavu. ೪. 10 takein

ಪುರಿಗ್ಗಂಟ್‌ purigganty, 1. 5600 ಪುರಿ |
ಪ್ರರಿಜಂತ್ರೊ purijantro. 11. malice,
. envy, mischief.
ಪುರಿಯೊಲು puriyolu. z.
. -ಪುರ್ಯೊಲು an eel.
ಪುರ್ಕು puru. #. ೩ snail.
R, puru. 7. squeezing. |
ಪುರ್ಕು puru. adj. very small. |
—bale a very small baby.

ಪುರ್ಕು purku. #. also Yy, the
also | ಪುರ್ಗ purga. 1. sour gruel [1].
| ಪುರ್ಬು purbu. n. 560 ಪುರುಬು.

| ಪುರ್ಯೊಲು puryolu. #. 566 ಪುರಿ

| ಪುರ್ಲಿ purli. 2.

embers; to half-bake; to
save, 10 lay up.

rehum of the eye.

ಯೊಲು.

the wild hog-
plum.

ಪುರುಂಗು purungu. v. ೩150 ಪುಳುಂಗು | ಪುಲ pula. #. ೩150 ಪುಲವಾಡ್‌ ೩
10 ferment, 10 decompose. | pasturate, grazing ground;

.
