. ಮೂಂಕುಶಿ munkuti 207

ಮೂಂಕುತಿ miunkuti. ೫. see ಮೂ . soms 08 el 0
ಸ ಹ 1063, a palm-tree’ 108
ಕುತ್ತಿ munkutii. 1. 566 ಮೂ | ಮೂರೆ 7776. ೫. ೩ man ಇಗ
ತ ನ L ಡಕ an without
2 muji. m_,L_meml. three. | ಮೂರ್ತೆ mirte. 1, ಮುತೆ!
ಮೂಜಿಕಾಸ್‌ mujikasu. #. worth- | ಸೂಲ 7780, ವ ಜಣ. ಮ
1658 (worth three pies). | prin Cipai~ ಸೀಲ capital,
ಮೂಡಾಯಿ mudayi. 1. east, —gare e ಗ ಇ ಸದ್ಯ
ಮೂಡು 786/3. ೪. 10 ೫86, 10 be: 08 land, ಕೀ ಹ!
born. lease of 1೩76, —-dpn,y: a

ಮೂಡ್ಕೆ mude. 1. a mould made |  harijan attached to ೩ 18706
usually of the leaves of the ' in olden days, sala— liabili-
screw-pine into which the ' ties and assets.
dough is poured; pudding | ಮೂಲಿ mili. adj. original, prin-
prepared with such on cipal (¢f. mila). —varga
arrangement in steam. . proprietory -tenure “01

ಮೂಡ್ಕೆ mude. 11. ೩ bag made of . _-1and.
the spathe of an areca ! ಮೂಲಿಕೆ mulike. 1/- any medici-

branch. nal drug. —kaiiy to wear

ಮೂಡೆತ್ತಾಯ 778661157೩. ೫-೩, a charm, on 50176 parts 08
family name of Tuluva; the body. .
Brahmins. [madeta+ ! ಮೂಲೆ mile. 1. ೩ corner, ‘angle.
aya.] —kally 06 corner stone,

ಮೂಂಡಿ mundi. 7. 566 ಮುಂಡಿ, —tu bury 10 remain neglec-

ಮೂಂಡು 10576. 7. ೩ support ted, -॥81/ 10 become weak

in general usually used to | and “591555- i 5

give additional strength to | ಮೂರೆಂಗಿ millengi. 1/- radish.

weak walls, bridges, etc. | ಮೂಲ್ಕಿ mulyé. ೫. 3 potter
ಮೂಪು mapu. # ೩150 ಮೋಫು | (original 502 01 the 5017).

ಜಾ ಮೂವೆರ್‌ mavery. . three’per-

ಮೂಬದಲಿ 7702681. ೫. 2 loan | 5005. :
ರ್ಯಾ | ಮೂಷೆಲ್‌ 7756. #. three pairs

without interest; danything ೫
ಹ ಜ್‌ ಸಾಗಿ ೨1೫. | ಸು mivodu. ೫. see ಮು
ಹ ರ್‌ (
by stmi_ghtenins ttge ;I;Tb:s ಪೊಡು.
ಮಸ ಟ್‌ the blos- ಮೂಳು ೫2810: 449: here.
