ಟೀಪು tipu '

105

ಡಂಡಂ dam dam

ಓಪು tipu. ೫. ೩ stitch.

ಬೀವಿ tivi. 1. 6150187; gait.

ಟುಕ್‌ಟುಕ್‌ tuky-tuky. #. sound
made while a carpenter is
at work with his chisel.

ಟೀವಣಾತಿ tevanati. ೫. ೩ bank

deposit.
ಟೊಂಕ (0010, #. theloins,
hip.
ಡ

ಎಡ್‌ du. 5೮೮ -ಟ್‌, 011008 in the
bag, 001111 in the silver.

ಎಡ್‌ದ್‌ -dudy. also -37, an abla-
tive case suffix. mittydudu
0811116 it fell from above;
also used as a suffix in the
context of comparison.
imbye materedudy  gattige
He is wiser than all.

ಎಡೆ -da. see -ta. @ pu ennada
141114 that flower is with me.

ಡಕ್ಕೆ dakke. 11. also ದಕ್ಕೆ ೩ large
drum. —ta bali carrying an
idol in procession round
the temple with the beating
of such a drum.

ಡಂಕ್‌ danku. 2. 566 ಎಡಂಕ್‌..

ಡಂಗ ಡಂಗ danga danga. ೧00,
slowly.

ಡಂಗುರೊ danguro. 1. proclama-
tion usually made by the
beating of ೩ gong.  [gong.

ಡಣಡಣ dapadana. ೫. sound of a

ಡಣ್ಣ dappapa. #. also ಡೆಣ್ಣ

ಣ್ಣ, B3,, ಜಿನ್ನಣ chorus of

14

ಟೊಂಕಪಾಡ್‌ tonkapadu. ೪. to hop
on one leg.

8ok, toppi. ೫. see
— paduni to cheat.

ಟೊಪ್ಪೆ toppe. 7. the outer cover-
ing’of the cashew-nut.

ಟೊಳ್ಳು 10110. 1. hollow.

-ಟ್ಟ್ಟ್‌ (೫-566 -ಟ್‌, 7107011 in
the tree, 0) in it.

2ok

paddana ೩ native type of
Tulu composition.

ಡಪ್ಪು, dappu. ೫. ೩ small drum.

@, dappu. ». to plough.
[>adappu.]

ಡಬ daba. ೫. also ಡಬ್ಬ noise
produced when anything
falls down and hits against
something.

ಡಬ್ಬ dabba. 1. see ಡಬ.

ಡಬ್ಬ dabba. 7. also ಡಬ್ಬಿ, ದಬ್ಬಿ
tin, a tin box, ೩ box kept
in temples for receiving
offerings.

ಡಬ್ಬಿ dabbi. 1. 566 Buy,. podi—
a snuff box.

ಡಬ್ಬು, dabbu. ೫. also ದಬ್ಬು ೩
116, ೩ bluff, ೩ boast.

ಡಬ್ಬು dabbu. ೫. also By, ೩
copper half-anna coin.

ಡಬ್ಬು dabbu. v. also ದಬ್ಬು, to
push out, to neck one out.

ಡಂ ಡಂ dam dam. ». the noise
of firing a gun; the noise
of drum, ` 3...
