*ತಣೆಗಿಲೆ kanigile

48

'ಕರಡ್ಮಿ kandi

ef'the New Year's' Day, to
be seen first by the house-
“hold “07 the ‘morrow of’the
‘New Year.
ಕಣಿಗಿಲೆ kanigile. #. ೩ kind 08
‘bell-shaped yellow flower.
233 kanime. 11. ೩150 'ಕಣಿನೆ ೩
2855 between 0೫೦ ‘hills or
77007118115, ‘anatrow’way.
“ಕಣಿಯೆ kaniyé. 11. an astrologer.
ಕಣಿಲೆ kanile. 11. tender shoot of
bamboo.
ಕಣಿನೆ 108116, 11. see ' ಕಣಿವೆ,
"ಕಣೆ" karie. . ೩ 5167007 branch;
anything 5167608. mulla—
a slender thorn, bedruyta—
a twig of bamboo.  ponnu
‘kape kape nllaly that girl is
~ slim and slender.
18, 'kage. ‘7. ‘the 11011101 a
porcupine.
ಕಣ್ಕೆ kape. ೫. ೩ silvery branch-
like `800 coming out
instead of the regular sprout
in 2 paddy ‘plant. If this
*happens ‘it should ‘be
understood that there will
8:70 ear 08 corn.
'ಕಣೆಂಗ್ಸ್‌ kanengu. ೫. also ಕಲೆಂಗ್‌'
‘rust, verdigris,
ಇಣೆಂಗ್ಸ್‌ ‘kanengu. ೪. to rust,
to'get ‘verdigris. |
`ಕಣೆರ್‌ kapery. 7. ೩150 ಕನೆಂ"
astringency; ೩ ೯೦೫7157
‘colour ೦೯ stain; -colouration
of water due to decaying
08 ‘vegetation.
'ಈಣೆಲ್‌ kanelu. 91116 thick end

¥8e7, kanely. 7. ೩ twig [<ka-
ne gelly].
ಕಣೊಲೆ kanole. 7. see ಕೊಣಲೆ,
ಕಂಟ್‌ kantu. 00). excessive in
| bad taste and odour:—kaipe
! very bitter.
| ಕಂಟಿ kanta 7. an iron style used
for writing upon palm leaf.
ಕಂಟಾಸೆ kantase. 11. also nolnd
-avarice, greed. [kanty--ase.]
%ol 101/1. 31. ೩ necklace. ‘[Sk.
kanthi.]
ಕಂಟ್ಠಿ kanti. 11. ‘darling 01 'the
eye. porlu kanti bale ೩ very
lovely baby. [rel [M].
ಕಂಟ(ಯು) kanti(yu). ೪. to quar-
golieoaods kantiraya. n. title 01
a certain king. [Sk. kanthi-
rava ?] kaptiraya varanya
gold coin said to have been
issued by that king.
ಕಂಟೂಸು kantisu. #. ಗಂಟೂಸು
foul smell producedby
break-wind. [kantu--tsu.]
ಕಂಟಿ kanté. 9. ೩ tom-cat.
ಕಂಟೆಲ್‌' kantely. #. the 760%.
“dobras¥n kantyato. . ೩ quarrel.
ಕಂಡ್‌ kandu. ೪. to steal.
ಕಂಡಣೆ kandani. 11. ೩150 6ಡಿ
ಕಂಡಾಣಿ, `ಕಂಡಾನಿ a'husband.
ಕಂಡನಿ kandani. 1). 5೮೮ಕಂಡಣಿ,
ಕಂಡಾಣಿ kandani. 111. 566 ಕಂಡಣಿ,
ಕಂಡಾಫಿ kandani. 11. 566 'ಕಕಿಣಣಿ,
ಕಂಡಾಬಟ್ಟಿ kandabatte. 400, otit
of-order, improper.
ಕಂಡ್ಮಿ kandi. 9. window; an
‘opening.
ಕರೆಡ್ಮಿ kandi. #. a weight -equal

ofgrags or straw.

to:‘twenty’ maunds, (
