ಚಿಳ್ಳೆ ೮6

96

4 ಚೂಡಿ 3%

ಚಿಳ್ಳೆ cille. . 566 ಚಿಳ್ಳಿ.

ಚೀಕದೆ cikade. #. ೩ kind 08 fish.

ಚೀಂಕ್ಟ್‌ cinkru. 7. also ಕೀಂಕ್ಳ್‌,
ಸೀಂಕ್ರ್‌ the stalk of ೩ cocoa-
nut leaf, thin splinters of
‘bamboo for stitching deaves.

ಚೀಟ್‌ 010.11. ೩ note, short letter,
೩ stamp; ೩ shop bill.

ಚೀಫಿ cini. #. Chinese. — bolli
pure silver — sakkare white
sugar. —vadya pipe played
by Muslims.

ಚೇಪ್ರು cipu. 1. see ಕೇಪು.

ಚೀಪು cipu. 1. ೩ bolt, latch.

ಚೀಪೆ cipe. ೫. ೩150 3B, ಸೀಸೆ
sweetness.

ಚೀಮುಳ್ಳು cimulju. 7. also ಸೀಮು.
@, ೩ kind 01 thorny plant.
[೮1-1-1711].

~ ಚೀಯ ciya. #. ೩10 ತಿಗ್ರ ತೀಯ

honey. [ci+ney.]

ಚೀಯನೊ ciyano. 1/- also ತೀಯನೊ

೩ 1076 08 576% pudding, |

usually in ೩ semi 50110 state.
[cipe+3yna ?] [Islam.
ಚೀಲೇರ್‌ cileru. 11. converts 10
ಚುಕ್ಕಾಣಿ. cukkani. ೫, the rudder
of a ship.
ಚುಗುಳಿ cuguli. #. peel, rind of a
fruit or vegetable.
ಚುಂಗುಡಿ cungudi. #. ೩ small
sum of money ; change for
higher denominations of
currency.
ಚುಂಗೆ cunge. 11.
ಚುಚ್ಚು ೦೬೦೦೬. ೫. also ತುಚ್ಚು,
ಚ್ಚು 10 bite.
ಚುಟಿ cuti. 1. ೩150 ಸುಟ smartness,
cleverness.

a kind of rice.
B

ಚುಟ್ಟಿ cutta. 1. cheroot.

ಚುಚ್ಚಿ cutti. #. make-up with
a paint or rouge.

| ಚುಯಿ cuyi. 11. the hissing noise

| of a heated metal dipped in-

| to water or the hissing noise

| produced during the baking
of a cake called 1050,

ಚುರುಕು curuku. #. quickness,
sharpness, vigour.

ಚುರುಚುರು curucuru. 7. the hiss-
ing noise caused by frying,
burning etc; also used to
exprees hunger ೩5 bajiji 01171!
017% pappundu there is
hunger in the stomach.

ಚುಳ್ಳಿ culi. #. also ಸುಳ್ಳಿ curl,
whirlpool.

ಚುಳ್ಳಿ culi. 71. also ಸುಳ್ಳಿ an omi-
nous curve on the body of
persons or animals.

| ಚುಳ್ಳಿ culi. 1. also ಸುಳ್ಳಿ tender
shoot of palms.

ಚುಳ್ಳಿ culi. ೪. also ಸುಳ್ಳಿ to agitate,

to churn. —gali whirl-
wind, —marayi round
| trough.
| ಚುಳ್ಳಿ culli. ೫. also ಸುಳ್ಳಿ a kind
i of plant.

ಚೂ ೦8. #. setting ೩ dog on;

| driving ೩ dog away.

| @8, cuti. 11. escaping from the

grasp in wrestling. 15

ಚೂಟ್ಕಿ 01/1. 2. aim, device.
ಚೂಟಿ cite. 1. also 308, ಸೂಟಿ a

| torch made of palm leaves;

| a fierce quarrelsome woman

(18.).

| ಚೂಡಿ 0101, ೫. ಖೊಂ ತೂಡಿ, ಸೂಡಿ

