ಚಣಿಲ್‌ canile

ಚಣಿಲ್‌' 081110. 2. 566 ಅಣಿಲ್‌. |

ಚಂಡಿ candi. 1. wetness — pundi |
completely wet, — podi’
unsteady.

ಚಂಡುರ್ಲಿ candurli. 1. see ಚಂಗುಲ್ಮಿ.

ಚಂಡ್ರ್‌ candry. 11. cold water.
[candi-+niry.]

ಚದಿ cadi. 7. obstinacy ; deceit.

ಚನಾನಿ canani. 11. great harm;
quarrel ; Tuin.

ಚನಿಯ caniya. #. name of ೩
male person. [Sk. sani?]

ಚನಿಯಾರೊ caniyaro. 11. also ಸನಿ
ಯಾರೊ, ಶನಿವಾರೊ Saturday.
[Sk. anivara.]

ಚಂದಕ್ಕು candakka. 7. name of |
a female person. [canda—+
akka.] |

ಚಂದಯ್ಯ candayya. 11. name ofa !
male person. [canda+-ayya.] |

ಚಂದು candu. 11, name of ೩ male |
or female person.

ಚಂದ್ರೆ candré. 1. moon. [SK. |
candra.]

ಚಸ್ನ್ವಾಸ್‌ capdasy. 1. bluffing,
fabrication, invention.

ಚಪ್ಚಿ capdi. #. trick, deceit.
capdikali jugglery.

#8,8 cappate. 1. see ಚಟ್ಟೆ. |

ಚಪ್ಪರ್‌: cappary. 11. akind of |
dried fish. i

ಚಪ್ಪಕೊ capparo. 11. a shed, .
pandal. i

ಚಪ್ಪೆ cappe. ೫. also ಸಪ್ಪೆ, ಹೆಪ್ಪೆ |

ಚಬಚ್ಚಿ cabacci. 1. ೩ kind 01 fish.

ಚಬುಕ್ಕು cabuku. 11. also ತಬುಕ್ಕು
casuarina.

ಚಬುಕ್ಕು cabuku. 1. whip.

tasteless, unsavoury. |

93

ಚನಲ್ಮೊ cavalo

ಚವ್‌ಚ 081700೩. 7. 5೧೦೦೫ [೫].

ಚಮತ್ಕಾರೊ camatkiro. 11. cle-
verness; 5101017055. [Sk.
camatkara.]

ಚರಡ್‌' carady. 98. the ear, caradn
pattute pintavunpe to twist
the ear.

ಚರಮುರಿ caramuri. ೫. parched
೫06.

ಚರಿಗೆ carige. #. ೩೩೦ ಚೆರಿಗೆ ೩ big
cooking vessel made of
copper or brass.

ಚರು. caru. ೫. an oblation of
3106 offered to god through
sacrificial fire.

ಚರೆ care. #. small shots.

ಚರ್ದಿ cardi. #. vomitting.

ಚರ್ಬಿ carbi. 1. fat [F].

ಚರ್ಮೊ carmo. ೫. skin, hide.

ಚಲ್ಲ್‌ cally. adj. also ಚಳ್ಳ್‌ stu-
pid ; timid ; useless.

ಚಲ್ಲಂಗಾಯಿ callangdyi. #. ೩ kind
of nut used as shots in coun-

try toy guns. [ches.
ಚಲ್ಲಣೊ callano. 1. short bree-

| ಚಲ್ಲಂಟಿ callante..a kind of ಯ.

ಚಲ್ಲಾ ಪಿಲ್ಲಿ callapilli. adj. helter-
skelter, chaotic.

. ಚಲ್ಲಿ calli. #. achip; a potsherd.

ಚಲ್ಲು callu. ». to spill; to dis-
perse.

ಚಲ್ಲಿಸಿಲ್ಲೆ ೦೩161116. 11. youngsters.

ಚವಣೆ cavane. 11. an instrument
for drawing wire.

#38w, cavalo. ೫. ೩ two anna
silver coin.

ಚವಲ್ಮೊ cavalo. 7. ceremony

of tonsure of a child. [Sk.
caula.] '
