ಬುಡೆತ್ತಿ budetti

the completion of the action

180

ಬೂಳ್ಯ biilya

of other verbs; it expresses | ಬುಳಂತ್ಯೆ bulantye. 11. ೩10 ಬೊಳಂ.

3, ಬೊಳ್ಳಂತೈ raw rice.

and answers ‘off’, to ‘away’ , ಬುಳಾರ್‌ bujary. adj. see ಬುಳಕ್ಕಕೆ.

etc.
away.

೩5 in kortu— to give

ಬುಡೆತ್ತಿ budetti. #. ೩150 ಮಿಡೆದ, |

ಜೊಡೆತ್ತಿ, ಜೊಡೆದಿ wife.

ಬುಡೆದಿ budedi. 1. 566 ಬುಡಿತ್ತಿ.

ಬುಡೊ budo. 7. 101017, base,
origin.

ಬುಡ್ಡಲೆ buddale. #.
fishing net.

ಬುಣ buna. #. a peg [M].

ಬುಣ್ಣು buppu. 7. ೩ strange
branch [M].

ಬುತ್ತು, buttu. 7. see ಬಿತ್ತ್‌,

ಬುದಾರೊ budaro. #. Wednesday.
[Sk. budhavara.]

ಬುರುಡೆ burude. 7. ೩ bottle,
usually round in shape.
tave— skull, podi— snuff
box, —budu 10 bluff,
—rattavu to behead.

ಬುರ್ನಾಸ್‌ burnasy. adj. useless,
worthless. [nose-ring.

ಬುಲಾಕ್‌ bulikyu. #. a kind of

ಬುಲಾವು bulavu. ೪. also ಬುಳಾವು
to open ೩5 the ೮765.

ಬುಲ್ಲು bullu. ೪. ೩150 ಬುಳ್ಳು 10
enlarge ೩ 5076, to 5011 ೩
the 5016 01 ೩ 1001, palm, 610,

ಬುಸ್ಸು bussu. ೪. to hiss.

ಬುಳಕು. bujaku. #. brightness
and shining.

ಬುಳಕೆ bujake. #. see ಬಳಕೆ.

ಬುಳಕರೆ bulakkare. adj. also ಬುಳ
79,0, ಬುಳಾರ್‌' half-ripe.

ಬುಳಕ್ಕಾರ್‌ bujakkany. adj. see
9,8 (cf. baripparundy).

|
i
|
|

ಬುಳಾವು bulavu. ೫. ೩೧೮ ಬುಲಾವು.

ಬುಳುಪ್ರು bujupu. #. ೩ cry, lamen-
tation.

%), bujupu. ೪. to cry.

ಬುಳ್ಳೆ bule. #. growing corn or
crop.

| ಬುಳ್ಳೆ bule. ೫. to grow.

a kind of | ಬುಳೆತ್‌ bulety. adj. well-grown.
| ಬುಳೆವು bulevu. 11. obstinacy;

mischief.
ಬುಳ್ಳು 111111. ೫. see ಬುಲ್ಲು.
ಬೂಚಿ buci. 11. ೩ ೧೦%, stopper;
see ಬೂಸು. [revenge.
ಬೂಟ್ಮು batu. ೫. to repay, 10
ಬೂಟ್ಮು batu. empty boast.
ಬೂಡು budu. 11. residence of ೩
headman.
ಬೂಣ bina. #. see ತೂಣ [M].
ಬೂತಾಯಿ butayi. #. oil sardine
(a kind of fish). [person.
ಬೂಡೆ bude. #. name of a male
ಬೂರಿಗೆ barige. 7. kind of
sweetmeat. [creeper.
ಬೂರ್ಕು biru. 11. also ಬೂಳ್ಳ್ಕು a
2003, buru. ೪. also ಬೂಳ್ಳು to fall.
ಬೂರುಗೊ biirugo. #. the sik
cotton.
ಬೂರುಡು barudu. ೪. to spread
evenly, to level [M].
ಬೂಳ್ಕು 1111. 11. see ಬೂರ್ಕು,
ಬೂಳ್ಳು biju. ೪. 5೮6 ಬೂರ್ಕು.
ಬೂಳ್ಯು, bilya. 11. betel leaves,
arecanut, etc. [Sk. viti.]
wevy, bilya. 1. the prasada
(made of turmeric powder)
of a devil. .

a
