.ಅಗಳ್‌ agaly

ಅಂಗಸೆ angase

ಅಗಳ್‌' agaly. 7. 566 ಅಗರ್‌.

ಅಗಳಿ agali. 11. ೩150 ಅಗೊಲಿ, ಅಗೊಳಿ
a 18186 765561 (usually ear-
then).

ಅಗಿ agi. ೪. to chew.

'ಅಗಿಲ್‌ agily. . 91. ೩ kind of tree.

ಅಗ್ಗಿತ್ತಾ, ಪ್ರಾಯ 9ಕಕ1[10)7. 11. ೩ family

the thrush, coatingin the
tongue. kamboli—, kari—,
kotta—, pui—, sarpa—, etc,,
are some of the varieties of
this disease.

ಅಂಕರಿಕ್ಕೆ ankarike. 1.
finned herring.

೩ long

name of Tujuva Brahmins | ಅಂಕರಿಕ್ಕೆ ankarike. 11. ೩ circular

(¢f. ಅಂಗಿಂತಾಯ).
ಕ)

ಅಗುಡೆ agude. . 0150 ಅಗ್ಲುಡೆ a |

furnace. [Sk. agnistika.]
eﬁsda aguru. ೪. 10 totter, stag-
“.ger [M].

[aggitta+ |

| ಅಂಕ್ಕೆ anke. 11.

step usually built of stone
inside a well.
ಅಂಕಾಯನೊ arnkiyano. 11. ೩ tem-
ple festival. [aikad-ayano,]
ಅಂಕೆ anke. 11. ೩ digit.

control ; limit,

ಅಗೆರೆ agere. 11. that to be che- | ಅಂಗ್‌, angu. #. desire, greedi-

wed; usually betel leaf, nut, |
chunam and tobacco are so |

called.
ಅಗೆಲ್‌್‌ ೩೮10. 1. ೩ kind of
- religious rite wherein 7106,
: jaggery, cocoanuts etc. are
. served on plantain leaves
and offered to deities.
wiof, agelu. v. 10 go apart,
to widen.
ಅಗೆರೊ ೩610; 1. breadth.
ಅಗೊಲಿ agoli. ೫. 566 ಅಗಳಿ.
ಅಗೊಳಿ agoli. ೫. 566 ಅಗಳಿ,
ಅಗೊಳಿ ಮಳ್ಳ್ಯುಣ agoli mifiana. ೩
- useless person.
oy B aggude. 1. 566 ಅಗುಡೆ.
o1 agge. 1. shoot of a branch.
3, 3ggo. 1. Cheapness.
ಅಗ್ರಸಾಲೆ. 3785830. 7. cooking
place in temples. [Sk. ಆರಾ
5517]
ಅಗ್ರಾಕೊ agriro. ೫. ೩ Brahmin
_settlement. [Sk. agrahara.]
ಅಗ್ರೊ agro, #.a sore mouth;

ness. —budpini to covet
for something, usually eata-
bles.

ಅಂಗ್‌ angu. v. 10 open (as in
the case of yawning the
mouth) ; to await with de:
sire for something (c/. ಅಂಗ್ಸ್‌),

ಅಂಗ್‌ angu. 11. also ಹೆಂಗ್‌, obli-
gation.

ಅಂಗ್‌'ಸಾವು angsavu. ಐ. also ಹೆಂಗ್‌:
ಸಾವು 10 ೫677೦೩೦0; 10 ತು
(0 anguy,). )

ಅಂಗಡಿ ಪಕ್ಕಿ angadi pakki. n. a
kind of bird. [angadl+
pakki.]

ಅಂಗಣೊ angano. 11. temple yard.-

ಅಂಗತ್ತೈ angatne. 11. also ಅಂಗಾತ್ಮ್ಮೆ
thirst. i

ono®) | angalappu.. 7.
ಅಂಗಲಾಪು undue desire.

ಅಂಗಸೆ angase. #. a building in
which the front part is a
shop and the back a resi-

dence [M].

"also
