ಕೊಟ್ಟಿ, kotte

ಕೊಟ್ಟಿ . kotte. #. the kernel 2111
ಜ್‌ the testicles ; — ೫114111! |
a kind of thorny plant |
whose white and sweet fruit
are liked by children.
ಕೊಟ್ಟ kotte. ೫. ೩ leaf-cup used
in baking certain pudding.
ಕೊಟ್ಟೊ 1:0110. 4. see ಕುಟ್ಟೊ.
ಕೊಟ್ಟಿ kotya. 1. a 5866, ೩ stall.
[51 kostha.]
ಕೊಡ್ರಿ ಇ kotrifia. . ೩ lark.
42888, kodakkena. adj.strong
to the taste.
ಕೊಡಕೈನ` kodakkena. 11. a kind
08 curry prepared with
cocoanut and butter milk.
ಕೊಡಂಕತ್ತಿ kodankatti. 1೫. a kind
of sickle. [kodam-Kkatti.]
3s@dol¥ kodange. 7. an ear
ornament worn by men, |
mitta— ೩ kind of ear orna- |
ment.
ಕೂಡಂದೆ kodande.
fish.
ಕೊಡಂದೇಲ್‌ kodandely. 11. ೩ snare
set up 10% birds.
ಕೊಡಪಾನೊ kodapano. 11. metal-
lic water pot.
ಕೊಡಪು kodapu. ೪. see ಕುಡಪು. |
ಕೊಡಸೆ kodape. 1. ೩ kind of
bird.
%083, kodape. #. the hoop.
ಕೊಡಮಂಶಾಯ kodamantaya. 1.
name of ೩ demon ; ೩ family
name. [kodamanta-+-aya.]
ಕೊಡರಿ kodari. 1. see ಕುಡರಿ.
ಕೊಡಿ kodi. #. end, extremity.
— kade sequence. —7e

n. a kind 01

77

dam, konu

ಕೊಡ್ಡಿ kodi. 7. ೩ sprout.

300, kodi. #. ೩ flag. —mara
a ﬂag staff.

ಕೊಡ್ಮಿ kodi. 7. an interdict,
prohibition, --ಸಿಂ|| 10 tie
up certain secret herbs after
incdntation, to ೩ fruit bear-
ing tree so as to prevent
theft by robbers. [to bud.

ಕೊಡಿಪ್ರು kodipu. ». to sprout,

ಕೊಡಿಪ್ಪು kodipu. 11. ೩ sprout.

ಕೊಡಿನೆಲ್‌ kodipely. 7. a sprout.

ಕೊಡುಕು koduku. #. hymen.

ಕೊಡುಮಾಯಿ kodumayi. #. a kind
of Horse Mackerel fish.

ಕೊಡೆ kode. 7. umbrella.

ಕೊಡೆಂಜಿ kodefiji. #. see ಕುಡಂಜಿ,

ಕೊಡೆಂಜಿಮರ kodefijimara. 11. see
ಕುಡೆಂಜಿಮರ, [kodeftji+mara.]

ಕೊಡ್ಡೆಯಿ koddeyi. #. Croaker
fish (¢f. kalltru). N

ಕೊಡ್ಯು kodya. #. a white spot.

ಕೊಡ್ಳುಣ್‌ kodyanu. 7. also ಕೊಡಾ
3 a small kind of fish.

ಕೊಡ್ಯಾಣಿ kodyani. 1. see ಕೊಡ್ಯಣ್‌.

ಕೊಡ್ಯೆ kodyé. #. ೩ bull with ೩
tuft of white hair on the
tail or with a white spot on
the forehead.

ಕೊಡ್ಕೊಳ್ಳಿ kodyolti. #. a cow
with a tuft of white hair
on the tail or with a white
spot on the fore-head.

ಕೊಣೆ konaje. 1. ೩ fly infest-
ing the eyes.

ಕೊಣಲೆ konale. 2. see ಕುಣಲೆ.

ಕೊಣಿ koni. #. ೩160 ಕೊಂಡಿ a sting.

ಕೊಣ್ಮು konu. ೪. 10 get hurt. '

(kodi+-ire) top leaf.

ಕೊಣ್ಣು konu. second member
