ಕೂಲಿ kili

70

32, keppi

ಕೂಲಿ kiili. 11. wages, hire.

ಕೂಲ್ಯಾವು kilyavu.v, see ಕುಯ್ಲಾ ವು.

353, kiive. 12. arrow-root.

303, kuve. #. ೩ mast.

ಕೂಳಿ kuli. 2. ೩ tooth.

ಕೂಳು kuju. 2. see ಕೂರ್ಕು.”

ಕೂಳ್ಳಾವು kilyavu.v. see ಕುಯ್ಲಾ ವು.

_ಕೆ ke. also ಗೃ ೩ particle added
to a verb to express permis-
sibility. enkly barke shall
we take leave.

| of the main items of the
festival.
| ಕೆಡ್ಜೆಸ keddesa. 11. 566 ಕೆಡ್ಡಸ,
ಕೆಣಕ್‌ kenaku. ೨. 10 7೫೦೪೦೬.
ಕೆಣಿ keni. 1. 566 ಸೆಣೆ.
ಕೆಂಡೊ kendo. ೫. also ಗೆಂಡೊ
burning cinder of fire.
ಕೆಂಡೊದಡೈ kendodadye. 1. adry
cake usually made of rice
and baked on live cinder.
[kendoda+-adye.]

ಕೆಕ್ಚುರಿನೆ kekkaripe. 11. also ತೆಕ್ಕುರೆ, ಕೆತೊಣು 1೭61000, ೪. 566 ಕತೊಣು,

ತೆಕ್ಕರ್ಪೆ, ಚೆಕ್ಳರ್ನೆ a variety 08
cucumber.

23y kekki. 7. also ಕೆಕ್ಕಿಲ್‌ neck,
throat.

ಕೆಕ್ಸ್ರಿಲ್‌ kekkily. 7. 566 ತೆಕ್ಕೆ.

ಕೆಂಗಲ್ಫು ನಿ kengalyuni. 1. paddy
plants turning 766 10 ೩
6156856,

ಹೆಜಲ್‌' kejaly. ೫. ೩150 ಗೆಜಲ್‌ 10
600776 severe, ೩001166 10
61568565 especially itch; to
spread haphazardly as hair.

ಕೆಂಚ್‌ keficy. adj. reddish.

ಕೆಂಜೆಲ್‌' kefijely. 11. also ಕೆರ್‌ಂಜಿಲ್‌
the udder.

ಕೆಟ್ಟ ketta. adj. bad.

ಕೆಡ್‌'ಕ್‌ keduky. 1. damage, loss.

ಕೆಡಿ kedi. 2. see ಸೆಡಿ.

ಸೆಡೆಂಜೋಳು kedefijolu. #. also
ಡೆಂಜೆಲಿ an arrangement in
the form of a raincoat made
of cocoanut feathers.

ಕೆಡ್ಡಸ keddasa. #. also ಕೆಡ್ಜೆಸ
three days’ festival during
February - March when
people go out hunting ;
eating of fried grains is one

ಕೆತ್ತ್‌ 1:60. ೪. to ೦೩೯೪೮, enrgave;

| to 618 slightly, 10 peel 08 as

i bark of a tree; to set as

jewels.

| ಕೆತ್ತರ್‌ kettary. v. to feel pain

| in the belly.

ಕೆತ್ತಿ ketti. 1. also 33, egg.

| ಕೆತ್ತೆ kette. #. the bark of a

| tree, a piece, ೩ 5106.

ಕೆದ್‌ಂಕ್‌ kedunky. 11. also ಕೆದಂಕೆ
the tip of bird’s wing; ೩
thin layer.

ಕೆದಂಕೆ kedanke. n. 566 ಕೆದ್‌ಂಕ್‌,

| ಕೆದರ್‌ kedary. ೫. 10 break out,

|. to burst forth, to be excited.

| ಕೆದಿ kedi. . ೩ feather.

ಕೆದಿಲಾಯ kedilaya. 11. a family
name of Tuluva Brahmins.
[kedu-+il4-aya.]

ಕೆದು kedu. 11. see 3.

ಕೆಜೊಣು kedonu. v. see ಕತೊಣು.

ಕೆನ್ನಿ kenni. 1. temple.

id_j& keppade. n. also ¥3
cheek. .

ಕೆಪ್ಪಟ್ರಾಯ keppatraya. 1.

5 101705. ನ.

ಕೆಬ್ಬಿ keppi. 7. ೩ deaf woman.

