.ಅಂದಕೆ andaké ' 9

ಅಜೀಸ್‌ ಜಹಿ

ಅಂದಕೆ andaké. #. also ಅಂದಗೆ | ಅಪ್ಪಯ್ಯ appayya. 1. also ಅಪ್ಪಾ

one deficient in any of the.|
limbs. [Sk. andhaka ?]
ಅಂದಗೆ andagé. n. 566 ಅಂದಕೆ,

ಅಂದಣೊ andano. #. ೩ palan- :
quin.
ಅಂದಾಯಿ andayi. 007. that

which 15, true. [andu-+-ayi.] |
01೫. andayi paterog sanda-
20 iddi there is no counter

statement for ೩ truthfuli

utterance.

ಅಂದ್ಕೊ ando. 11. beauty, form.

ಅಂದ್ಕೊ 81100. is it 507

ಅನ್ನಡಿ annadi. #. ೩ homeless
person.

ಅಪಗ apaga. adv. then.

ಅಪದ್ದೊ apaddo. 9. also ಅಬದ್ದೊ
not cogent, inconsistent.
[Sk. abaddha.]

ಅಪರೂಪೊ aparipo. .2, also ಅಪು
ರೂಪೊ rareness, uncommon-
ness. [Sk. apurva.]

ಅಪಸ್ಮ್ಮಾರೊ apasmaro. #.epilepsy.

ಅಪಾಪೋಲಿ apapoli. 1. also ಪೋಲಿ
೩ vagabond. [ರೂಪೊ.

ಅಪ್ರರೂಸೊ apuripo. ೫. see ಅಪ

ಅಪ್ಪ appa. part. ೩ particle of
su.rpnse appa !l aya buleve !
behold | his mischief !

ಅಪ್ಪಣೆ appage. ೫. ರಾಗಿ
'ಭ7215507. i

ಅಪ್ಪಣ್ಣ appanpa. 1. name of a
male person. [appa+-anpa.]

K 03003 appantdayé. ೫. an
agreeable person, a good
man. [appanta+-ayé.]

ಅಫ್ಸ 037 appantige. 11. honesty,
agreeableness

2

o3 name of ೩ male person
[appa-t+ayya.]

. ಆಪ್ಪಳಿಪು appalipu. v. to strike,

press against.

ಅಪ್ಪೆಳೊ appalo. 1. ೩150 ಹಪ್ಪಳೊ.
೩ thin round cake usually
fried in oil.

ಅಪ್ಪಾಯೆ appayé. n. see ಅಪ್ಪಯ್ಯ.

ಅಪ್ಪು appu. 1. name of ೩ per-
son; sometimes -used as ೩
second member of a proper
noun as in Kariyappu; a
pet way of addrssing httle
children.

ಆಸ್ಲೆ, appe. 1. mother.

3, -appe. 1. ೩ suffix added
to names of women as in
Duggappe.

ಅಪ್ಪೊ appo. ೫. a kind of cake.

ಅಬ್ಬ ೫ 1111. ೩150 ಅಬ್ಬ, ಅಬ್ಬಬ್ಬ,
ಅಬ್ಬೊ used 10 ಲರ್ಭಜ asto-
mshment or surprise. .

ಅಬ್ಬ aba. #. ೩ mode of calling
mother.

©uE" abadu. 9. also ಅವಡ್‌ hoof.

ಅಬದೆ abade. 7. also ಅಬರೆ a kind
of bean.

ಅಬದ್ದೊ abaddo. 1. see ಅಪದ್ದೊ.

ಅಬರ abara. 1. the stem of ೩
ship [M].

ಅಬರೆ abare. 7. see w3,

ಅಬಿಂಡಿಗೆ abindige. 1. perplexity.

ಅಬುರೋಣಿ aburcni. ಇ. ೩ 10ರ 08

"960. o

ಅಬೆ abe. ೪. to pound or cleanse

. rice of its husk.

ಲ್ರಜೇಸ್‌ ಕಟ, ೫4, ೩ word utte-”

| red while¥starting to lLift
